solid OpenSCAD_Model
  facet normal -1 0 0
    outer loop
      vertex 17.2 134.2 10
      vertex 17.2 131.2 10
      vertex 17.2 131.2 13
    endloop
  endfacet
  facet normal 1 -0 0
    outer loop
      vertex 18.75 134.2 10
      vertex 18.75 142.2 0
      vertex 18.75 142.2 10
    endloop
  endfacet
  facet normal 1 0 0
    outer loop
      vertex 18.75 131.2 13
      vertex 18.75 142.2 0
      vertex 18.75 134.2 10
    endloop
  endfacet
  facet normal 1 0 0
    outer loop
      vertex 18.75 15.2 0
      vertex 18.75 131.2 13
      vertex 18.75 15.2 13
    endloop
  endfacet
  facet normal 1 0 0
    outer loop
      vertex 18.75 131.2 13
      vertex 18.75 15.2 0
      vertex 18.75 142.2 0
    endloop
  endfacet
  facet normal 0 0 1
    outer loop
      vertex 15.3 142.2 10
      vertex 13.75 134.2 10
      vertex 15.3 134.2 10
    endloop
  endfacet
  facet normal -0 0 1
    outer loop
      vertex 13.75 142.2 10
      vertex 13.75 134.2 10
      vertex 15.3 142.2 10
    endloop
  endfacet
  facet normal 0 0 0
    outer loop
      vertex 13.75 131.2 10
      vertex 13.75 134.2 10
      vertex 13.75 142.2 10
    endloop
  endfacet
  facet normal -0 0 1
    outer loop
      vertex 17.2 142.2 10
      vertex 18.75 134.2 10
      vertex 18.75 142.2 10
    endloop
  endfacet
  facet normal 0 0 1
    outer loop
      vertex 18.75 134.2 10
      vertex 17.2 142.2 10
      vertex 17.2 134.2 10
    endloop
  endfacet
  facet normal 0 0 0
    outer loop
      vertex 17.2 142.2 10
      vertex 17.2 131.2 10
      vertex 17.2 134.2 10
    endloop
  endfacet
  facet normal -0 0 1
    outer loop
      vertex 15.3 134.2 10
      vertex 17.2 131.2 10
      vertex 17.2 142.2 10
    endloop
  endfacet
  facet normal 0 0 1
    outer loop
      vertex 15.3 134.2 10
      vertex 17.2 142.2 10
      vertex 15.3 142.2 10
    endloop
  endfacet
  facet normal 0 0 1
    outer loop
      vertex 15.3 15.2 10
      vertex 17.2 131.2 10
      vertex 15.3 134.2 10
    endloop
  endfacet
  facet normal 0 0 1
    outer loop
      vertex 17.2 131.2 10
      vertex 15.3 15.2 10
      vertex 17.2 15.2 10
    endloop
  endfacet
  facet normal 0 0.707107 0.707107
    outer loop
      vertex 18.75 134.2 10
      vertex 17.2 131.2 13
      vertex 18.75 131.2 13
    endloop
  endfacet
  facet normal 0 0.707107 0.707107
    outer loop
      vertex 17.2 131.2 13
      vertex 18.75 134.2 10
      vertex 17.2 134.2 10
    endloop
  endfacet
  facet normal -1 0 0
    outer loop
      vertex 13.75 134.2 10
      vertex 13.75 131.2 10
      vertex 13.75 131.2 13
    endloop
  endfacet
  facet normal 0 0.707107 0.707107
    outer loop
      vertex 15.3 134.2 10
      vertex 13.75 131.2 13
      vertex 15.3 131.2 13
    endloop
  endfacet
  facet normal 0 0.707107 0.707107
    outer loop
      vertex 13.75 131.2 13
      vertex 15.3 134.2 10
      vertex 13.75 134.2 10
    endloop
  endfacet
  facet normal 0 0 -1
    outer loop
      vertex 17.4388 135.464 0
      vertex 18.75 142.2 0
      vertex 17.4388 79.0863 0
    endloop
  endfacet
  facet normal 0 0 -1
    outer loop
      vertex 18.75 142.2 0
      vertex 17.4388 135.464 0
      vertex 17.5 135.85 0
    endloop
  endfacet
  facet normal 0 0 -1
    outer loop
      vertex 17.2613 79.4347 0
      vertex 17.4388 135.464 0
      vertex 17.4388 79.0863 0
    endloop
  endfacet
  facet normal 0 0 -1
    outer loop
      vertex 17.2613 79.4347 0
      vertex 17.2613 135.115 0
      vertex 17.4388 135.464 0
    endloop
  endfacet
  facet normal 0 0 -1
    outer loop
      vertex 16.9847 79.7113 0
      vertex 17.2613 135.115 0
      vertex 17.2613 79.4347 0
    endloop
  endfacet
  facet normal 0 0 -1
    outer loop
      vertex 16.9847 79.7113 0
      vertex 16.9847 134.839 0
      vertex 17.2613 135.115 0
    endloop
  endfacet
  facet normal 0 0 -1
    outer loop
      vertex 16.6363 79.8888 0
      vertex 16.9847 134.839 0
      vertex 16.9847 79.7113 0
    endloop
  endfacet
  facet normal 0 0 -1
    outer loop
      vertex 16.6363 79.8888 0
      vertex 16.6363 134.661 0
      vertex 16.9847 134.839 0
    endloop
  endfacet
  facet normal 0 0 -1
    outer loop
      vertex 16.25 79.95 0
      vertex 16.6363 134.661 0
      vertex 16.6363 79.8888 0
    endloop
  endfacet
  facet normal 0 0 -1
    outer loop
      vertex 16.25 79.95 0
      vertex 16.25 134.6 0
      vertex 16.6363 134.661 0
    endloop
  endfacet
  facet normal 0 0 -1
    outer loop
      vertex 15.8637 79.8888 0
      vertex 16.25 134.6 0
      vertex 16.25 79.95 0
    endloop
  endfacet
  facet normal 0 0 -1
    outer loop
      vertex 15.8637 79.8888 0
      vertex 15.8637 134.661 0
      vertex 16.25 134.6 0
    endloop
  endfacet
  facet normal 0 0 -1
    outer loop
      vertex 15.5153 79.7113 0
      vertex 15.8637 134.661 0
      vertex 15.8637 79.8888 0
    endloop
  endfacet
  facet normal 0 0 -1
    outer loop
      vertex 15.5153 79.7113 0
      vertex 15.5153 134.839 0
      vertex 15.8637 134.661 0
    endloop
  endfacet
  facet normal 0 0 -1
    outer loop
      vertex 15.2387 79.4347 0
      vertex 15.5153 134.839 0
      vertex 15.5153 79.7113 0
    endloop
  endfacet
  facet normal 0 0 -1
    outer loop
      vertex 15.2387 79.4347 0
      vertex 15.2387 135.115 0
      vertex 15.5153 134.839 0
    endloop
  endfacet
  facet normal 0 0 -1
    outer loop
      vertex 15.0612 79.0863 0
      vertex 15.2387 135.115 0
      vertex 15.2387 79.4347 0
    endloop
  endfacet
  facet normal 0 0 -1
    outer loop
      vertex 15.0612 79.0863 0
      vertex 15.0612 135.464 0
      vertex 15.2387 135.115 0
    endloop
  endfacet
  facet normal 0 0 -1
    outer loop
      vertex 13.75 142.2 0
      vertex 15.0612 79.0863 0
      vertex 15 78.7 0
    endloop
  endfacet
  facet normal 0 0 -1
    outer loop
      vertex 15.0612 79.0863 0
      vertex 13.75 142.2 0
      vertex 15.0612 135.464 0
    endloop
  endfacet
  facet normal 0 0 -1
    outer loop
      vertex 17.4388 78.3137 0
      vertex 18.75 15.2 0
      vertex 17.4388 21.9363 0
    endloop
  endfacet
  facet normal 0 0 -1
    outer loop
      vertex 18.75 15.2 0
      vertex 17.4388 78.3137 0
      vertex 17.5 78.7 0
    endloop
  endfacet
  facet normal 0 0 -1
    outer loop
      vertex 17.2613 22.2847 0
      vertex 17.4388 78.3137 0
      vertex 17.4388 21.9363 0
    endloop
  endfacet
  facet normal 0 0 -1
    outer loop
      vertex 17.2613 22.2847 0
      vertex 17.2613 77.9653 0
      vertex 17.4388 78.3137 0
    endloop
  endfacet
  facet normal 0 0 -1
    outer loop
      vertex 16.9847 22.5613 0
      vertex 17.2613 77.9653 0
      vertex 17.2613 22.2847 0
    endloop
  endfacet
  facet normal 0 0 -1
    outer loop
      vertex 16.9847 22.5613 0
      vertex 16.9847 77.6887 0
      vertex 17.2613 77.9653 0
    endloop
  endfacet
  facet normal 0 0 -1
    outer loop
      vertex 16.6363 22.7388 0
      vertex 16.9847 77.6887 0
      vertex 16.9847 22.5613 0
    endloop
  endfacet
  facet normal 0 0 -1
    outer loop
      vertex 16.6363 22.7388 0
      vertex 16.6363 77.5112 0
      vertex 16.9847 77.6887 0
    endloop
  endfacet
  facet normal 0 0 -1
    outer loop
      vertex 16.25 22.8 0
      vertex 16.6363 77.5112 0
      vertex 16.6363 22.7388 0
    endloop
  endfacet
  facet normal 0 0 -1
    outer loop
      vertex 16.25 22.8 0
      vertex 16.25 77.45 0
      vertex 16.6363 77.5112 0
    endloop
  endfacet
  facet normal 0 0 -1
    outer loop
      vertex 15.8637 22.7388 0
      vertex 16.25 77.45 0
      vertex 16.25 22.8 0
    endloop
  endfacet
  facet normal 0 0 -1
    outer loop
      vertex 15.8637 22.7388 0
      vertex 15.8637 77.5112 0
      vertex 16.25 77.45 0
    endloop
  endfacet
  facet normal 0 0 -1
    outer loop
      vertex 15.5153 22.5613 0
      vertex 15.8637 77.5112 0
      vertex 15.8637 22.7388 0
    endloop
  endfacet
  facet normal 0 0 -1
    outer loop
      vertex 15.5153 22.5613 0
      vertex 15.5153 77.6887 0
      vertex 15.8637 77.5112 0
    endloop
  endfacet
  facet normal 0 0 -1
    outer loop
      vertex 15.2387 22.2847 0
      vertex 15.5153 77.6887 0
      vertex 15.5153 22.5613 0
    endloop
  endfacet
  facet normal 0 0 -1
    outer loop
      vertex 15.2387 22.2847 0
      vertex 15.2387 77.9653 0
      vertex 15.5153 77.6887 0
    endloop
  endfacet
  facet normal 0 0 -1
    outer loop
      vertex 15.0612 21.9363 0
      vertex 15.2387 77.9653 0
      vertex 15.2387 22.2847 0
    endloop
  endfacet
  facet normal 0 0 -1
    outer loop
      vertex 15.0612 21.9363 0
      vertex 15.0612 78.3137 0
      vertex 15.2387 77.9653 0
    endloop
  endfacet
  facet normal 0 0 -1
    outer loop
      vertex 13.75 15.2 0
      vertex 15.0612 21.9363 0
      vertex 15 21.55 0
    endloop
  endfacet
  facet normal -0 0 -1
    outer loop
      vertex 15.0612 21.9363 0
      vertex 13.75 15.2 0
      vertex 15.0612 78.3137 0
    endloop
  endfacet
  facet normal 0 0 -1
    outer loop
      vertex 17.4388 21.9363 0
      vertex 18.75 15.2 0
      vertex 17.5 21.55 0
    endloop
  endfacet
  facet normal 0 0 -1
    outer loop
      vertex 18.75 15.2 0
      vertex 17.4388 21.1637 0
      vertex 17.5 21.55 0
    endloop
  endfacet
  facet normal 0 0 -1
    outer loop
      vertex 18.75 15.2 0
      vertex 17.2613 20.8153 0
      vertex 17.4388 21.1637 0
    endloop
  endfacet
  facet normal 0 0 -1
    outer loop
      vertex 18.75 15.2 0
      vertex 16.9847 20.5387 0
      vertex 17.2613 20.8153 0
    endloop
  endfacet
  facet normal 0 0 -1
    outer loop
      vertex 18.75 15.2 0
      vertex 16.6363 20.3612 0
      vertex 16.9847 20.5387 0
    endloop
  endfacet
  facet normal 0 0 -1
    outer loop
      vertex 18.75 15.2 0
      vertex 16.25 20.3 0
      vertex 16.6363 20.3612 0
    endloop
  endfacet
  facet normal 0 0 -1
    outer loop
      vertex 13.75 15.2 0
      vertex 16.25 20.3 0
      vertex 18.75 15.2 0
    endloop
  endfacet
  facet normal -0 0 -1
    outer loop
      vertex 16.25 20.3 0
      vertex 13.75 15.2 0
      vertex 15.8637 20.3612 0
    endloop
  endfacet
  facet normal -0 0 -1
    outer loop
      vertex 15.8637 20.3612 0
      vertex 13.75 15.2 0
      vertex 15.5153 20.5387 0
    endloop
  endfacet
  facet normal -0 0 -1
    outer loop
      vertex 15.0612 78.3137 0
      vertex 13.75 15.2 0
      vertex 15 78.7 0
    endloop
  endfacet
  facet normal 0 0 -1
    outer loop
      vertex 13.75 142.2 0
      vertex 15 78.7 0
      vertex 13.75 15.2 0
    endloop
  endfacet
  facet normal -0 0 -1
    outer loop
      vertex 15.0612 21.1637 0
      vertex 13.75 15.2 0
      vertex 15 21.55 0
    endloop
  endfacet
  facet normal -0 0 -1
    outer loop
      vertex 15.2387 20.8153 0
      vertex 13.75 15.2 0
      vertex 15.0612 21.1637 0
    endloop
  endfacet
  facet normal -0 0 -1
    outer loop
      vertex 15.5153 20.5387 0
      vertex 13.75 15.2 0
      vertex 15.2387 20.8153 0
    endloop
  endfacet
  facet normal 0 0 -1
    outer loop
      vertex 18.75 15.2 0
      vertex 17.5 78.7 0
      vertex 18.75 142.2 0
    endloop
  endfacet
  facet normal 0 0 -1
    outer loop
      vertex 17.4388 79.0863 0
      vertex 18.75 142.2 0
      vertex 17.5 78.7 0
    endloop
  endfacet
  facet normal 0 0 -1
    outer loop
      vertex 17.4388 136.236 0
      vertex 18.75 142.2 0
      vertex 17.5 135.85 0
    endloop
  endfacet
  facet normal 0 0 -1
    outer loop
      vertex 17.2613 136.585 0
      vertex 18.75 142.2 0
      vertex 17.4388 136.236 0
    endloop
  endfacet
  facet normal 0 0 -1
    outer loop
      vertex 16.9847 136.861 0
      vertex 18.75 142.2 0
      vertex 17.2613 136.585 0
    endloop
  endfacet
  facet normal 0 0 -1
    outer loop
      vertex 16.6363 137.039 0
      vertex 18.75 142.2 0
      vertex 16.9847 136.861 0
    endloop
  endfacet
  facet normal 0 0 -1
    outer loop
      vertex 16.25 137.1 0
      vertex 18.75 142.2 0
      vertex 16.6363 137.039 0
    endloop
  endfacet
  facet normal 0 0 -1
    outer loop
      vertex 13.75 142.2 0
      vertex 16.25 137.1 0
      vertex 15.8637 137.039 0
    endloop
  endfacet
  facet normal 0 0 -1
    outer loop
      vertex 13.75 142.2 0
      vertex 15.8637 137.039 0
      vertex 15.5153 136.861 0
    endloop
  endfacet
  facet normal 0 0 -1
    outer loop
      vertex 13.75 142.2 0
      vertex 15.5153 136.861 0
      vertex 15.2387 136.585 0
    endloop
  endfacet
  facet normal 0 0 -1
    outer loop
      vertex 16.25 137.1 0
      vertex 13.75 142.2 0
      vertex 18.75 142.2 0
    endloop
  endfacet
  facet normal 0 0 -1
    outer loop
      vertex 15.0612 136.236 0
      vertex 13.75 142.2 0
      vertex 15.2387 136.585 0
    endloop
  endfacet
  facet normal 0 0 -1
    outer loop
      vertex 15 135.85 0
      vertex 13.75 142.2 0
      vertex 15.0612 136.236 0
    endloop
  endfacet
  facet normal 0 0 -1
    outer loop
      vertex 15.0612 135.464 0
      vertex 13.75 142.2 0
      vertex 15 135.85 0
    endloop
  endfacet
  facet normal -1 0 0
    outer loop
      vertex 13.75 142.2 0
      vertex 13.75 131.2 10
      vertex 13.75 142.2 10
    endloop
  endfacet
  facet normal -1 0 0
    outer loop
      vertex 13.75 15.2 0
      vertex 13.75 131.2 10
      vertex 13.75 142.2 0
    endloop
  endfacet
  facet normal -1 0 0
    outer loop
      vertex 13.75 15.2 13
      vertex 13.75 131.2 10
      vertex 13.75 15.2 0
    endloop
  endfacet
  facet normal -1 0 0
    outer loop
      vertex 13.75 131.2 10
      vertex 13.75 15.2 13
      vertex 13.75 131.2 13
    endloop
  endfacet
  facet normal 0 1 -0
    outer loop
      vertex 18.75 142.2 0
      vertex 17.2 142.2 10
      vertex 18.75 142.2 10
    endloop
  endfacet
  facet normal 0 1 0
    outer loop
      vertex 17.2 142.2 10
      vertex 18.75 142.2 0
      vertex 15.3 142.2 10
    endloop
  endfacet
  facet normal 0 1 0
    outer loop
      vertex 13.75 142.2 0
      vertex 15.3 142.2 10
      vertex 18.75 142.2 0
    endloop
  endfacet
  facet normal 0 1 0
    outer loop
      vertex 15.3 142.2 10
      vertex 13.75 142.2 0
      vertex 13.75 142.2 10
    endloop
  endfacet
  facet normal 0 -1 0
    outer loop
      vertex 13.75 15.2 13
      vertex 15.3 15.2 10
      vertex 15.3 15.2 13
    endloop
  endfacet
  facet normal 0 -1 -0
    outer loop
      vertex 15.3 15.2 10
      vertex 13.75 15.2 0
      vertex 17.2 15.2 10
    endloop
  endfacet
  facet normal 0 -1 0
    outer loop
      vertex 13.75 15.2 0
      vertex 15.3 15.2 10
      vertex 13.75 15.2 13
    endloop
  endfacet
  facet normal 0 -1 0
    outer loop
      vertex 17.2 15.2 10
      vertex 18.75 15.2 13
      vertex 17.2 15.2 13
    endloop
  endfacet
  facet normal 0 -1 0
    outer loop
      vertex 18.75 15.2 0
      vertex 17.2 15.2 10
      vertex 13.75 15.2 0
    endloop
  endfacet
  facet normal 0 -1 0
    outer loop
      vertex 17.2 15.2 10
      vertex 18.75 15.2 0
      vertex 18.75 15.2 13
    endloop
  endfacet
  facet normal -0 0 1
    outer loop
      vertex 13.75 131.2 13
      vertex 15.3 15.2 13
      vertex 15.3 131.2 13
    endloop
  endfacet
  facet normal 0 0 1
    outer loop
      vertex 13.75 131.2 13
      vertex 13.75 15.2 13
      vertex 15.3 15.2 13
    endloop
  endfacet
  facet normal -0 0 1
    outer loop
      vertex 17.2 131.2 13
      vertex 18.75 15.2 13
      vertex 18.75 131.2 13
    endloop
  endfacet
  facet normal 0 0 1
    outer loop
      vertex 18.75 15.2 13
      vertex 17.2 131.2 13
      vertex 17.2 15.2 13
    endloop
  endfacet
  facet normal -0.156475 -0.987682 0
    outer loop
      vertex 16.25 79.95 0
      vertex 16.6363 79.8888 3
      vertex 16.25 79.95 3
    endloop
  endfacet
  facet normal -0.156475 -0.987682 -0
    outer loop
      vertex 16.6363 79.8888 3
      vertex 16.25 79.95 0
      vertex 16.6363 79.8888 0
    endloop
  endfacet
  facet normal -0.891026 -0.453953 0
    outer loop
      vertex 17.4388 79.0863 0
      vertex 17.2613 79.4347 3
      vertex 17.2613 79.4347 0
    endloop
  endfacet
  facet normal -0.891026 -0.453953 0
    outer loop
      vertex 17.2613 79.4347 3
      vertex 17.4388 79.0863 0
      vertex 17.4388 79.0863 3
    endloop
  endfacet
  facet normal -0.987682 -0.156475 0
    outer loop
      vertex 17.5 78.7 0
      vertex 17.4388 79.0863 3
      vertex 17.4388 79.0863 0
    endloop
  endfacet
  facet normal -0.987682 -0.156475 0
    outer loop
      vertex 17.4388 79.0863 3
      vertex 17.5 78.7 0
      vertex 17.5 78.7 3
    endloop
  endfacet
  facet normal -0.707107 -0.707107 0
    outer loop
      vertex 17.2613 79.4347 0
      vertex 16.9847 79.7113 3
      vertex 16.9847 79.7113 0
    endloop
  endfacet
  facet normal -0.707107 -0.707107 0
    outer loop
      vertex 16.9847 79.7113 3
      vertex 17.2613 79.4347 0
      vertex 17.2613 79.4347 3
    endloop
  endfacet
  facet normal -0.891026 0.453953 0
    outer loop
      vertex 17.2613 77.9653 0
      vertex 17.4388 78.3137 3
      vertex 17.4388 78.3137 0
    endloop
  endfacet
  facet normal -0.891026 0.453953 0
    outer loop
      vertex 17.4388 78.3137 3
      vertex 17.2613 77.9653 0
      vertex 17.2613 77.9653 3
    endloop
  endfacet
  facet normal -0.453953 0.891026 0
    outer loop
      vertex 16.9847 77.6887 0
      vertex 16.6363 77.5112 3
      vertex 16.9847 77.6887 3
    endloop
  endfacet
  facet normal -0.453953 0.891026 0
    outer loop
      vertex 16.6363 77.5112 3
      vertex 16.9847 77.6887 0
      vertex 16.6363 77.5112 0
    endloop
  endfacet
  facet normal 0.707107 -0.707107 0
    outer loop
      vertex 15.2387 79.4347 3
      vertex 15.5153 79.7113 0
      vertex 15.5153 79.7113 3
    endloop
  endfacet
  facet normal 0.707107 -0.707107 0
    outer loop
      vertex 15.5153 79.7113 0
      vertex 15.2387 79.4347 3
      vertex 15.2387 79.4347 0
    endloop
  endfacet
  facet normal -0.707107 0.707107 0
    outer loop
      vertex 16.9847 77.6887 0
      vertex 17.2613 77.9653 3
      vertex 17.2613 77.9653 0
    endloop
  endfacet
  facet normal -0.707107 0.707107 0
    outer loop
      vertex 17.2613 77.9653 3
      vertex 16.9847 77.6887 0
      vertex 16.9847 77.6887 3
    endloop
  endfacet
  facet normal -0.156475 0.987682 0
    outer loop
      vertex 16.6363 77.5112 0
      vertex 16.25 77.45 3
      vertex 16.6363 77.5112 3
    endloop
  endfacet
  facet normal -0.156475 0.987682 0
    outer loop
      vertex 16.25 77.45 3
      vertex 16.6363 77.5112 0
      vertex 16.25 77.45 0
    endloop
  endfacet
  facet normal 0 0 -1
    outer loop
      vertex 17.4388 78.3137 3
      vertex 17.4388 79.0863 3
      vertex 17.5 78.7 3
    endloop
  endfacet
  facet normal 0 0 -1
    outer loop
      vertex 17.2613 77.9653 3
      vertex 17.4388 79.0863 3
      vertex 17.4388 78.3137 3
    endloop
  endfacet
  facet normal 0 0 -1
    outer loop
      vertex 17.2613 77.9653 3
      vertex 17.2613 79.4347 3
      vertex 17.4388 79.0863 3
    endloop
  endfacet
  facet normal 0 0 -1
    outer loop
      vertex 16.9847 77.6887 3
      vertex 17.2613 79.4347 3
      vertex 17.2613 77.9653 3
    endloop
  endfacet
  facet normal 0 0 -1
    outer loop
      vertex 16.9847 77.6887 3
      vertex 16.9847 79.7113 3
      vertex 17.2613 79.4347 3
    endloop
  endfacet
  facet normal 0 0 -1
    outer loop
      vertex 16.6363 77.5112 3
      vertex 16.9847 79.7113 3
      vertex 16.9847 77.6887 3
    endloop
  endfacet
  facet normal 0 0 -1
    outer loop
      vertex 16.6363 77.5112 3
      vertex 16.6363 79.8888 3
      vertex 16.9847 79.7113 3
    endloop
  endfacet
  facet normal 0 0 -1
    outer loop
      vertex 16.25 77.45 3
      vertex 16.6363 79.8888 3
      vertex 16.6363 77.5112 3
    endloop
  endfacet
  facet normal 0 0 -1
    outer loop
      vertex 16.25 77.45 3
      vertex 16.25 79.95 3
      vertex 16.6363 79.8888 3
    endloop
  endfacet
  facet normal 0 0 -1
    outer loop
      vertex 15.8637 77.5112 3
      vertex 16.25 79.95 3
      vertex 16.25 77.45 3
    endloop
  endfacet
  facet normal 0 0 -1
    outer loop
      vertex 15.8637 77.5112 3
      vertex 15.8637 79.8888 3
      vertex 16.25 79.95 3
    endloop
  endfacet
  facet normal 0 0 -1
    outer loop
      vertex 15.5153 77.6887 3
      vertex 15.8637 79.8888 3
      vertex 15.8637 77.5112 3
    endloop
  endfacet
  facet normal 0 0 -1
    outer loop
      vertex 15.5153 77.6887 3
      vertex 15.5153 79.7113 3
      vertex 15.8637 79.8888 3
    endloop
  endfacet
  facet normal 0 0 -1
    outer loop
      vertex 15.2387 77.9653 3
      vertex 15.5153 79.7113 3
      vertex 15.5153 77.6887 3
    endloop
  endfacet
  facet normal 0 0 -1
    outer loop
      vertex 15.2387 77.9653 3
      vertex 15.2387 79.4347 3
      vertex 15.5153 79.7113 3
    endloop
  endfacet
  facet normal 0 0 -1
    outer loop
      vertex 15.0612 78.3137 3
      vertex 15.2387 79.4347 3
      vertex 15.2387 77.9653 3
    endloop
  endfacet
  facet normal 0 0 -1
    outer loop
      vertex 15.0612 78.3137 3
      vertex 15.0612 79.0863 3
      vertex 15.2387 79.4347 3
    endloop
  endfacet
  facet normal 0 -0 -1
    outer loop
      vertex 15.0612 79.0863 3
      vertex 15.0612 78.3137 3
      vertex 15 78.7 3
    endloop
  endfacet
  facet normal 0.156475 0.987682 -0
    outer loop
      vertex 16.25 77.45 0
      vertex 15.8637 77.5112 3
      vertex 16.25 77.45 3
    endloop
  endfacet
  facet normal 0.156475 0.987682 0
    outer loop
      vertex 15.8637 77.5112 3
      vertex 16.25 77.45 0
      vertex 15.8637 77.5112 0
    endloop
  endfacet
  facet normal 0.453953 0.891026 -0
    outer loop
      vertex 15.8637 77.5112 0
      vertex 15.5153 77.6887 3
      vertex 15.8637 77.5112 3
    endloop
  endfacet
  facet normal 0.453953 0.891026 0
    outer loop
      vertex 15.5153 77.6887 3
      vertex 15.8637 77.5112 0
      vertex 15.5153 77.6887 0
    endloop
  endfacet
  facet normal -0.987682 0.156475 0
    outer loop
      vertex 17.4388 78.3137 0
      vertex 17.5 78.7 3
      vertex 17.5 78.7 0
    endloop
  endfacet
  facet normal -0.987682 0.156475 0
    outer loop
      vertex 17.5 78.7 3
      vertex 17.4388 78.3137 0
      vertex 17.4388 78.3137 3
    endloop
  endfacet
  facet normal 0.156475 -0.987682 0
    outer loop
      vertex 15.8637 79.8888 0
      vertex 16.25 79.95 3
      vertex 15.8637 79.8888 3
    endloop
  endfacet
  facet normal 0.156475 -0.987682 0
    outer loop
      vertex 16.25 79.95 3
      vertex 15.8637 79.8888 0
      vertex 16.25 79.95 0
    endloop
  endfacet
  facet normal 0.987682 -0.156475 0
    outer loop
      vertex 15 78.7 3
      vertex 15.0612 79.0863 0
      vertex 15.0612 79.0863 3
    endloop
  endfacet
  facet normal 0.987682 -0.156475 0
    outer loop
      vertex 15.0612 79.0863 0
      vertex 15 78.7 3
      vertex 15 78.7 0
    endloop
  endfacet
  facet normal 0.707107 0.707107 0
    outer loop
      vertex 15.5153 77.6887 3
      vertex 15.2387 77.9653 0
      vertex 15.2387 77.9653 3
    endloop
  endfacet
  facet normal 0.707107 0.707107 0
    outer loop
      vertex 15.2387 77.9653 0
      vertex 15.5153 77.6887 3
      vertex 15.5153 77.6887 0
    endloop
  endfacet
  facet normal 0.453953 -0.891026 0
    outer loop
      vertex 15.5153 79.7113 0
      vertex 15.8637 79.8888 3
      vertex 15.5153 79.7113 3
    endloop
  endfacet
  facet normal 0.453953 -0.891026 0
    outer loop
      vertex 15.8637 79.8888 3
      vertex 15.5153 79.7113 0
      vertex 15.8637 79.8888 0
    endloop
  endfacet
  facet normal 0.987682 0.156475 0
    outer loop
      vertex 15.0612 78.3137 3
      vertex 15 78.7 0
      vertex 15 78.7 3
    endloop
  endfacet
  facet normal 0.987682 0.156475 0
    outer loop
      vertex 15 78.7 0
      vertex 15.0612 78.3137 3
      vertex 15.0612 78.3137 0
    endloop
  endfacet
  facet normal -0.453953 -0.891026 0
    outer loop
      vertex 16.6363 79.8888 0
      vertex 16.9847 79.7113 3
      vertex 16.6363 79.8888 3
    endloop
  endfacet
  facet normal -0.453953 -0.891026 -0
    outer loop
      vertex 16.9847 79.7113 3
      vertex 16.6363 79.8888 0
      vertex 16.9847 79.7113 0
    endloop
  endfacet
  facet normal 0.891026 0.453953 0
    outer loop
      vertex 15.2387 77.9653 3
      vertex 15.0612 78.3137 0
      vertex 15.0612 78.3137 3
    endloop
  endfacet
  facet normal 0.891026 0.453953 0
    outer loop
      vertex 15.0612 78.3137 0
      vertex 15.2387 77.9653 3
      vertex 15.2387 77.9653 0
    endloop
  endfacet
  facet normal 0.891026 -0.453953 0
    outer loop
      vertex 15.0612 79.0863 3
      vertex 15.2387 79.4347 0
      vertex 15.2387 79.4347 3
    endloop
  endfacet
  facet normal 0.891026 -0.453953 0
    outer loop
      vertex 15.2387 79.4347 0
      vertex 15.0612 79.0863 3
      vertex 15.0612 79.0863 0
    endloop
  endfacet
  facet normal -0.891026 -0.453953 0
    outer loop
      vertex 17.4388 21.9363 0
      vertex 17.2613 22.2847 3
      vertex 17.2613 22.2847 0
    endloop
  endfacet
  facet normal -0.891026 -0.453953 0
    outer loop
      vertex 17.2613 22.2847 3
      vertex 17.4388 21.9363 0
      vertex 17.4388 21.9363 3
    endloop
  endfacet
  facet normal -0.987682 -0.156475 0
    outer loop
      vertex 17.5 21.55 0
      vertex 17.4388 21.9363 3
      vertex 17.4388 21.9363 0
    endloop
  endfacet
  facet normal -0.987682 -0.156475 0
    outer loop
      vertex 17.4388 21.9363 3
      vertex 17.5 21.55 0
      vertex 17.5 21.55 3
    endloop
  endfacet
  facet normal -0.707107 -0.707107 0
    outer loop
      vertex 17.2613 22.2847 0
      vertex 16.9847 22.5613 3
      vertex 16.9847 22.5613 0
    endloop
  endfacet
  facet normal -0.707107 -0.707107 0
    outer loop
      vertex 16.9847 22.5613 3
      vertex 17.2613 22.2847 0
      vertex 17.2613 22.2847 3
    endloop
  endfacet
  facet normal -0.987682 0.156475 0
    outer loop
      vertex 17.4388 21.1637 0
      vertex 17.5 21.55 3
      vertex 17.5 21.55 0
    endloop
  endfacet
  facet normal -0.987682 0.156475 0
    outer loop
      vertex 17.5 21.55 3
      vertex 17.4388 21.1637 0
      vertex 17.4388 21.1637 3
    endloop
  endfacet
  facet normal -0.453953 0.891026 0
    outer loop
      vertex 16.9847 20.5387 0
      vertex 16.6363 20.3612 3
      vertex 16.9847 20.5387 3
    endloop
  endfacet
  facet normal -0.453953 0.891026 0
    outer loop
      vertex 16.6363 20.3612 3
      vertex 16.9847 20.5387 0
      vertex 16.6363 20.3612 0
    endloop
  endfacet
  facet normal 0.707107 -0.707107 0
    outer loop
      vertex 15.2387 22.2847 3
      vertex 15.5153 22.5613 0
      vertex 15.5153 22.5613 3
    endloop
  endfacet
  facet normal 0.707107 -0.707107 0
    outer loop
      vertex 15.5153 22.5613 0
      vertex 15.2387 22.2847 3
      vertex 15.2387 22.2847 0
    endloop
  endfacet
  facet normal 0.156475 0.987682 -0
    outer loop
      vertex 16.25 20.3 0
      vertex 15.8637 20.3612 3
      vertex 16.25 20.3 3
    endloop
  endfacet
  facet normal 0.156475 0.987682 0
    outer loop
      vertex 15.8637 20.3612 3
      vertex 16.25 20.3 0
      vertex 15.8637 20.3612 0
    endloop
  endfacet
  facet normal 0.987682 0.156475 0
    outer loop
      vertex 15.0612 21.1637 3
      vertex 15 21.55 0
      vertex 15 21.55 3
    endloop
  endfacet
  facet normal 0.987682 0.156475 0
    outer loop
      vertex 15 21.55 0
      vertex 15.0612 21.1637 3
      vertex 15.0612 21.1637 0
    endloop
  endfacet
  facet normal -0.891026 0.453953 0
    outer loop
      vertex 17.2613 20.8153 0
      vertex 17.4388 21.1637 3
      vertex 17.4388 21.1637 0
    endloop
  endfacet
  facet normal -0.891026 0.453953 0
    outer loop
      vertex 17.4388 21.1637 3
      vertex 17.2613 20.8153 0
      vertex 17.2613 20.8153 3
    endloop
  endfacet
  facet normal 0.891026 0.453953 0
    outer loop
      vertex 15.2387 20.8153 3
      vertex 15.0612 21.1637 0
      vertex 15.0612 21.1637 3
    endloop
  endfacet
  facet normal 0.891026 0.453953 0
    outer loop
      vertex 15.0612 21.1637 0
      vertex 15.2387 20.8153 3
      vertex 15.2387 20.8153 0
    endloop
  endfacet
  facet normal -0.156475 -0.987682 0
    outer loop
      vertex 16.25 22.8 0
      vertex 16.6363 22.7388 3
      vertex 16.25 22.8 3
    endloop
  endfacet
  facet normal -0.156475 -0.987682 -0
    outer loop
      vertex 16.6363 22.7388 3
      vertex 16.25 22.8 0
      vertex 16.6363 22.7388 0
    endloop
  endfacet
  facet normal -0.453953 -0.891026 0
    outer loop
      vertex 16.6363 22.7388 0
      vertex 16.9847 22.5613 3
      vertex 16.6363 22.7388 3
    endloop
  endfacet
  facet normal -0.453953 -0.891026 -0
    outer loop
      vertex 16.9847 22.5613 3
      vertex 16.6363 22.7388 0
      vertex 16.9847 22.5613 0
    endloop
  endfacet
  facet normal 0.987682 -0.156475 0
    outer loop
      vertex 15 21.55 3
      vertex 15.0612 21.9363 0
      vertex 15.0612 21.9363 3
    endloop
  endfacet
  facet normal 0.987682 -0.156475 0
    outer loop
      vertex 15.0612 21.9363 0
      vertex 15 21.55 3
      vertex 15 21.55 0
    endloop
  endfacet
  facet normal 0.156475 -0.987682 0
    outer loop
      vertex 15.8637 22.7388 0
      vertex 16.25 22.8 3
      vertex 15.8637 22.7388 3
    endloop
  endfacet
  facet normal 0.156475 -0.987682 0
    outer loop
      vertex 16.25 22.8 3
      vertex 15.8637 22.7388 0
      vertex 16.25 22.8 0
    endloop
  endfacet
  facet normal 0.453953 -0.891026 0
    outer loop
      vertex 15.5153 22.5613 0
      vertex 15.8637 22.7388 3
      vertex 15.5153 22.5613 3
    endloop
  endfacet
  facet normal 0.453953 -0.891026 0
    outer loop
      vertex 15.8637 22.7388 3
      vertex 15.5153 22.5613 0
      vertex 15.8637 22.7388 0
    endloop
  endfacet
  facet normal 0 0 -1
    outer loop
      vertex 17.4388 21.1637 3
      vertex 17.4388 21.9363 3
      vertex 17.5 21.55 3
    endloop
  endfacet
  facet normal 0 0 -1
    outer loop
      vertex 17.2613 20.8153 3
      vertex 17.4388 21.9363 3
      vertex 17.4388 21.1637 3
    endloop
  endfacet
  facet normal 0 0 -1
    outer loop
      vertex 17.2613 20.8153 3
      vertex 17.2613 22.2847 3
      vertex 17.4388 21.9363 3
    endloop
  endfacet
  facet normal 0 0 -1
    outer loop
      vertex 16.9847 20.5387 3
      vertex 17.2613 22.2847 3
      vertex 17.2613 20.8153 3
    endloop
  endfacet
  facet normal 0 0 -1
    outer loop
      vertex 16.9847 20.5387 3
      vertex 16.9847 22.5613 3
      vertex 17.2613 22.2847 3
    endloop
  endfacet
  facet normal 0 0 -1
    outer loop
      vertex 16.6363 20.3612 3
      vertex 16.9847 22.5613 3
      vertex 16.9847 20.5387 3
    endloop
  endfacet
  facet normal 0 0 -1
    outer loop
      vertex 16.6363 20.3612 3
      vertex 16.6363 22.7388 3
      vertex 16.9847 22.5613 3
    endloop
  endfacet
  facet normal 0 0 -1
    outer loop
      vertex 16.25 20.3 3
      vertex 16.6363 22.7388 3
      vertex 16.6363 20.3612 3
    endloop
  endfacet
  facet normal 0 0 -1
    outer loop
      vertex 16.25 20.3 3
      vertex 16.25 22.8 3
      vertex 16.6363 22.7388 3
    endloop
  endfacet
  facet normal 0 0 -1
    outer loop
      vertex 15.8637 20.3612 3
      vertex 16.25 22.8 3
      vertex 16.25 20.3 3
    endloop
  endfacet
  facet normal 0 0 -1
    outer loop
      vertex 15.8637 20.3612 3
      vertex 15.8637 22.7388 3
      vertex 16.25 22.8 3
    endloop
  endfacet
  facet normal 0 0 -1
    outer loop
      vertex 15.5153 20.5387 3
      vertex 15.8637 22.7388 3
      vertex 15.8637 20.3612 3
    endloop
  endfacet
  facet normal 0 0 -1
    outer loop
      vertex 15.5153 20.5387 3
      vertex 15.5153 22.5613 3
      vertex 15.8637 22.7388 3
    endloop
  endfacet
  facet normal 0 0 -1
    outer loop
      vertex 15.2387 20.8153 3
      vertex 15.5153 22.5613 3
      vertex 15.5153 20.5387 3
    endloop
  endfacet
  facet normal 0 0 -1
    outer loop
      vertex 15.2387 20.8153 3
      vertex 15.2387 22.2847 3
      vertex 15.5153 22.5613 3
    endloop
  endfacet
  facet normal 0 0 -1
    outer loop
      vertex 15.0612 21.1637 3
      vertex 15.2387 22.2847 3
      vertex 15.2387 20.8153 3
    endloop
  endfacet
  facet normal 0 0 -1
    outer loop
      vertex 15.0612 21.1637 3
      vertex 15.0612 21.9363 3
      vertex 15.2387 22.2847 3
    endloop
  endfacet
  facet normal 0 -0 -1
    outer loop
      vertex 15.0612 21.9363 3
      vertex 15.0612 21.1637 3
      vertex 15 21.55 3
    endloop
  endfacet
  facet normal -0.707107 0.707107 0
    outer loop
      vertex 17.2613 20.8153 0
      vertex 16.9847 20.5387 3
      vertex 17.2613 20.8153 3
    endloop
  endfacet
  facet normal -0.707107 0.707107 0
    outer loop
      vertex 16.9847 20.5387 3
      vertex 17.2613 20.8153 0
      vertex 16.9847 20.5387 0
    endloop
  endfacet
  facet normal 0.707107 0.707107 -0
    outer loop
      vertex 15.5153 20.5387 0
      vertex 15.2387 20.8153 3
      vertex 15.5153 20.5387 3
    endloop
  endfacet
  facet normal 0.707107 0.707107 0
    outer loop
      vertex 15.2387 20.8153 3
      vertex 15.5153 20.5387 0
      vertex 15.2387 20.8153 0
    endloop
  endfacet
  facet normal 0.891026 -0.453953 0
    outer loop
      vertex 15.0612 21.9363 3
      vertex 15.2387 22.2847 0
      vertex 15.2387 22.2847 3
    endloop
  endfacet
  facet normal 0.891026 -0.453953 0
    outer loop
      vertex 15.2387 22.2847 0
      vertex 15.0612 21.9363 3
      vertex 15.0612 21.9363 0
    endloop
  endfacet
  facet normal -0.156475 0.987682 0
    outer loop
      vertex 16.6363 20.3612 0
      vertex 16.25 20.3 3
      vertex 16.6363 20.3612 3
    endloop
  endfacet
  facet normal -0.156475 0.987682 0
    outer loop
      vertex 16.25 20.3 3
      vertex 16.6363 20.3612 0
      vertex 16.25 20.3 0
    endloop
  endfacet
  facet normal 0.453953 0.891026 -0
    outer loop
      vertex 15.8637 20.3612 0
      vertex 15.5153 20.5387 3
      vertex 15.8637 20.3612 3
    endloop
  endfacet
  facet normal 0.453953 0.891026 0
    outer loop
      vertex 15.5153 20.5387 3
      vertex 15.8637 20.3612 0
      vertex 15.5153 20.5387 0
    endloop
  endfacet
  facet normal -0.891341 -0.453333 0
    outer loop
      vertex 17.4388 136.236 0
      vertex 17.2613 136.585 3
      vertex 17.2613 136.585 0
    endloop
  endfacet
  facet normal -0.891341 -0.453333 0
    outer loop
      vertex 17.2613 136.585 3
      vertex 17.4388 136.236 0
      vertex 17.4388 136.236 3
    endloop
  endfacet
  facet normal -0.987663 -0.156593 0
    outer loop
      vertex 17.5 135.85 0
      vertex 17.4388 136.236 3
      vertex 17.4388 136.236 0
    endloop
  endfacet
  facet normal -0.987663 -0.156593 0
    outer loop
      vertex 17.4388 136.236 3
      vertex 17.5 135.85 0
      vertex 17.5 135.85 3
    endloop
  endfacet
  facet normal -0.706339 -0.707874 0
    outer loop
      vertex 16.9847 136.861 0
      vertex 17.2613 136.585 3
      vertex 16.9847 136.861 3
    endloop
  endfacet
  facet normal -0.706339 -0.707874 -0
    outer loop
      vertex 17.2613 136.585 3
      vertex 16.9847 136.861 0
      vertex 17.2613 136.585 0
    endloop
  endfacet
  facet normal -0.987663 0.156593 0
    outer loop
      vertex 17.4388 135.464 0
      vertex 17.5 135.85 3
      vertex 17.5 135.85 0
    endloop
  endfacet
  facet normal -0.987663 0.156593 0
    outer loop
      vertex 17.5 135.85 3
      vertex 17.4388 135.464 0
      vertex 17.4388 135.464 3
    endloop
  endfacet
  facet normal -0.454967 0.890508 0
    outer loop
      vertex 16.9847 134.839 0
      vertex 16.6363 134.661 3
      vertex 16.9847 134.839 3
    endloop
  endfacet
  facet normal -0.454967 0.890508 0
    outer loop
      vertex 16.6363 134.661 3
      vertex 16.9847 134.839 0
      vertex 16.6363 134.661 0
    endloop
  endfacet
  facet normal 0.706339 -0.707874 0
    outer loop
      vertex 15.2387 136.585 0
      vertex 15.5153 136.861 3
      vertex 15.2387 136.585 3
    endloop
  endfacet
  facet normal 0.706339 -0.707874 0
    outer loop
      vertex 15.5153 136.861 3
      vertex 15.2387 136.585 0
      vertex 15.5153 136.861 0
    endloop
  endfacet
  facet normal 0.155976 0.987761 -0
    outer loop
      vertex 16.25 134.6 0
      vertex 15.8637 134.661 3
      vertex 16.25 134.6 3
    endloop
  endfacet
  facet normal 0.155976 0.987761 0
    outer loop
      vertex 15.8637 134.661 3
      vertex 16.25 134.6 0
      vertex 15.8637 134.661 0
    endloop
  endfacet
  facet normal 0.987663 0.156593 0
    outer loop
      vertex 15.0612 135.464 3
      vertex 15 135.85 0
      vertex 15 135.85 3
    endloop
  endfacet
  facet normal 0.987663 0.156593 0
    outer loop
      vertex 15 135.85 0
      vertex 15.0612 135.464 3
      vertex 15.0612 135.464 0
    endloop
  endfacet
  facet normal 0.454967 -0.890508 0
    outer loop
      vertex 15.5153 136.861 0
      vertex 15.8637 137.039 3
      vertex 15.5153 136.861 3
    endloop
  endfacet
  facet normal 0.454967 -0.890508 0
    outer loop
      vertex 15.8637 137.039 3
      vertex 15.5153 136.861 0
      vertex 15.8637 137.039 0
    endloop
  endfacet
  facet normal -0.891341 0.453333 0
    outer loop
      vertex 17.2613 135.115 0
      vertex 17.4388 135.464 3
      vertex 17.4388 135.464 0
    endloop
  endfacet
  facet normal -0.891341 0.453333 0
    outer loop
      vertex 17.4388 135.464 3
      vertex 17.2613 135.115 0
      vertex 17.2613 135.115 3
    endloop
  endfacet
  facet normal 0.891341 0.453333 0
    outer loop
      vertex 15.2387 135.115 3
      vertex 15.0612 135.464 0
      vertex 15.0612 135.464 3
    endloop
  endfacet
  facet normal 0.891341 0.453333 0
    outer loop
      vertex 15.0612 135.464 0
      vertex 15.2387 135.115 3
      vertex 15.2387 135.115 0
    endloop
  endfacet
  facet normal -0.155976 -0.987761 0
    outer loop
      vertex 16.25 137.1 0
      vertex 16.6363 137.039 3
      vertex 16.25 137.1 3
    endloop
  endfacet
  facet normal -0.155976 -0.987761 -0
    outer loop
      vertex 16.6363 137.039 3
      vertex 16.25 137.1 0
      vertex 16.6363 137.039 0
    endloop
  endfacet
  facet normal -0.454967 -0.890508 0
    outer loop
      vertex 16.6363 137.039 0
      vertex 16.9847 136.861 3
      vertex 16.6363 137.039 3
    endloop
  endfacet
  facet normal -0.454967 -0.890508 -0
    outer loop
      vertex 16.9847 136.861 3
      vertex 16.6363 137.039 0
      vertex 16.9847 136.861 0
    endloop
  endfacet
  facet normal 0.987663 -0.156593 0
    outer loop
      vertex 15 135.85 3
      vertex 15.0612 136.236 0
      vertex 15.0612 136.236 3
    endloop
  endfacet
  facet normal 0.987663 -0.156593 0
    outer loop
      vertex 15.0612 136.236 0
      vertex 15 135.85 3
      vertex 15 135.85 0
    endloop
  endfacet
  facet normal 0.155976 -0.987761 0
    outer loop
      vertex 15.8637 137.039 0
      vertex 16.25 137.1 3
      vertex 15.8637 137.039 3
    endloop
  endfacet
  facet normal 0.155976 -0.987761 0
    outer loop
      vertex 16.25 137.1 3
      vertex 15.8637 137.039 0
      vertex 16.25 137.1 0
    endloop
  endfacet
  facet normal 0 0 -1
    outer loop
      vertex 17.4388 135.464 3
      vertex 17.4388 136.236 3
      vertex 17.5 135.85 3
    endloop
  endfacet
  facet normal 0 0 -1
    outer loop
      vertex 17.2613 135.115 3
      vertex 17.4388 136.236 3
      vertex 17.4388 135.464 3
    endloop
  endfacet
  facet normal 0 0 -1
    outer loop
      vertex 17.2613 135.115 3
      vertex 17.2613 136.585 3
      vertex 17.4388 136.236 3
    endloop
  endfacet
  facet normal 0 0 -1
    outer loop
      vertex 16.9847 134.839 3
      vertex 17.2613 136.585 3
      vertex 17.2613 135.115 3
    endloop
  endfacet
  facet normal 0 0 -1
    outer loop
      vertex 16.9847 134.839 3
      vertex 16.9847 136.861 3
      vertex 17.2613 136.585 3
    endloop
  endfacet
  facet normal 0 0 -1
    outer loop
      vertex 16.6363 134.661 3
      vertex 16.9847 136.861 3
      vertex 16.9847 134.839 3
    endloop
  endfacet
  facet normal 0 0 -1
    outer loop
      vertex 16.6363 134.661 3
      vertex 16.6363 137.039 3
      vertex 16.9847 136.861 3
    endloop
  endfacet
  facet normal 0 0 -1
    outer loop
      vertex 16.25 134.6 3
      vertex 16.6363 137.039 3
      vertex 16.6363 134.661 3
    endloop
  endfacet
  facet normal 0 0 -1
    outer loop
      vertex 16.25 134.6 3
      vertex 16.25 137.1 3
      vertex 16.6363 137.039 3
    endloop
  endfacet
  facet normal 0 0 -1
    outer loop
      vertex 15.8637 134.661 3
      vertex 16.25 137.1 3
      vertex 16.25 134.6 3
    endloop
  endfacet
  facet normal 0 0 -1
    outer loop
      vertex 15.8637 134.661 3
      vertex 15.8637 137.039 3
      vertex 16.25 137.1 3
    endloop
  endfacet
  facet normal 0 0 -1
    outer loop
      vertex 15.5153 134.839 3
      vertex 15.8637 137.039 3
      vertex 15.8637 134.661 3
    endloop
  endfacet
  facet normal 0 0 -1
    outer loop
      vertex 15.5153 134.839 3
      vertex 15.5153 136.861 3
      vertex 15.8637 137.039 3
    endloop
  endfacet
  facet normal 0 0 -1
    outer loop
      vertex 15.2387 135.115 3
      vertex 15.5153 136.861 3
      vertex 15.5153 134.839 3
    endloop
  endfacet
  facet normal 0 0 -1
    outer loop
      vertex 15.2387 135.115 3
      vertex 15.2387 136.585 3
      vertex 15.5153 136.861 3
    endloop
  endfacet
  facet normal 0 0 -1
    outer loop
      vertex 15.0612 135.464 3
      vertex 15.2387 136.585 3
      vertex 15.2387 135.115 3
    endloop
  endfacet
  facet normal 0 0 -1
    outer loop
      vertex 15.0612 135.464 3
      vertex 15.0612 136.236 3
      vertex 15.2387 136.585 3
    endloop
  endfacet
  facet normal 0 -0 -1
    outer loop
      vertex 15.0612 136.236 3
      vertex 15.0612 135.464 3
      vertex 15 135.85 3
    endloop
  endfacet
  facet normal -0.706339 0.707874 0
    outer loop
      vertex 17.2613 135.115 0
      vertex 16.9847 134.839 3
      vertex 17.2613 135.115 3
    endloop
  endfacet
  facet normal -0.706339 0.707874 0
    outer loop
      vertex 16.9847 134.839 3
      vertex 17.2613 135.115 0
      vertex 16.9847 134.839 0
    endloop
  endfacet
  facet normal 0.706339 0.707874 -0
    outer loop
      vertex 15.5153 134.839 0
      vertex 15.2387 135.115 3
      vertex 15.5153 134.839 3
    endloop
  endfacet
  facet normal 0.706339 0.707874 0
    outer loop
      vertex 15.2387 135.115 3
      vertex 15.5153 134.839 0
      vertex 15.2387 135.115 0
    endloop
  endfacet
  facet normal 0.891341 -0.453333 0
    outer loop
      vertex 15.0612 136.236 3
      vertex 15.2387 136.585 0
      vertex 15.2387 136.585 3
    endloop
  endfacet
  facet normal 0.891341 -0.453333 0
    outer loop
      vertex 15.2387 136.585 0
      vertex 15.0612 136.236 3
      vertex 15.0612 136.236 0
    endloop
  endfacet
  facet normal -0.155976 0.987761 0
    outer loop
      vertex 16.6363 134.661 0
      vertex 16.25 134.6 3
      vertex 16.6363 134.661 3
    endloop
  endfacet
  facet normal -0.155976 0.987761 0
    outer loop
      vertex 16.25 134.6 3
      vertex 16.6363 134.661 0
      vertex 16.25 134.6 0
    endloop
  endfacet
  facet normal 0.454967 0.890508 -0
    outer loop
      vertex 15.8637 134.661 0
      vertex 15.5153 134.839 3
      vertex 15.8637 134.661 3
    endloop
  endfacet
  facet normal 0.454967 0.890508 0
    outer loop
      vertex 15.5153 134.839 3
      vertex 15.8637 134.661 0
      vertex 15.5153 134.839 0
    endloop
  endfacet
  facet normal -1 0 0
    outer loop
      vertex 17.2 15.2 10
      vertex 17.2 131.2 13
      vertex 17.2 131.2 10
    endloop
  endfacet
  facet normal -1 -0 0
    outer loop
      vertex 17.2 131.2 13
      vertex 17.2 15.2 10
      vertex 17.2 15.2 13
    endloop
  endfacet
  facet normal 1 0 0
    outer loop
      vertex 15.3 15.2 10
      vertex 15.3 131.2 13
      vertex 15.3 15.2 13
    endloop
  endfacet
  facet normal 1 0 0
    outer loop
      vertex 15.3 131.2 13
      vertex 15.3 15.2 10
      vertex 15.3 134.2 10
    endloop
  endfacet
endsolid OpenSCAD_Model
